{
  "page": 1,
  "per_page": 5,
  "videos": [
    {
      "videoCreator": {
        "logo": "https://bl-i.thgim.com/public/incoming/dd0f4h/article66001550.ece/alternates/FREE_1200/Saregama.png",
        "creatorName": "Saregama",
        "subscribers": "34.6 M",
        "uploadDate": "1 month ago",
        "videoDetails": "Lorem ipsum dolor sit amet, consectetur adipiscing elit. Quisque consectetur eget augue non hendrerit. Donec aliquet massa non enim tristique, eu volutpat tellus tristique. Vestibulum vel purus ut tellus mattis hendrerit vel quis ligula. Nullam vel ex nec eros scelerisque aliquet vitae et nibh. Lorem ipsum dolor sit amet, consectetur adipiscing elit. Phasellus sit amet velit orci. Proin a massa vel lacus tempor blandit vel id mauris. Phasellus a vulputate libero. Aliquam erat volutpat. Ut sed odio auctor, cursus tortor eu, condimentum odio. Quisque eget scelerisque purus."
      },
      "id": 2169880,
      "width": 1920,
      "height": 1080,
      "duration": "01:26",
      "name": "Aerial view of beautiful resort",
      "url": "https://player.vimeo.com/external/330412624.hd.mp4?s=9a9c77ce40f703dcb023eca64c85e258195efa28&profile_id=174&oauth2_token_id=57447761",
      "image": "https://images.pexels.com/videos/2169880/free-video-2169880.jpg?auto=compress&cs=tinysrgb&fit=crop&h=630&w=1200"
    },
    {
      "videoCreator": {
        "logo": "https://bl-i.thgim.com/public/incoming/dd0f4h/article66001550.ece/alternates/FREE_1200/Saregama.png",
        "creatorName": "Saregama",
        "subscribers": "34.6 M",
        "uploadDate": "1 month ago",
        "videoDetails": "Lorem ipsum dolor sit amet, consectetur adipiscing elit. Quisque consectetur eget augue non hendrerit. Donec aliquet massa non enim tristique, eu volutpat tellus tristique. Vestibulum vel purus ut tellus mattis hendrerit vel quis ligula. Nullam vel ex nec eros scelerisque aliquet vitae et nibh. Lorem ipsum dolor sit amet, consectetur adipiscing elit. Phasellus sit amet velit orci. Proin a massa vel lacus tempor blandit vel id mauris. Phasellus a vulputate libero. Aliquam erat volutpat. Ut sed odio auctor, cursus tortor eu, condimentum odio. Quisque eget scelerisque purus."
      },
      "id": 857251,
      "width": 1620,
      "height": 1080,
      "duration": "00:14",
      "name": "Beautiful timelapse of the night sky with reflections in a lake",
      "url": "https://player.vimeo.com/external/236075858.hd.mp4?s=539faad12f040eb5afd8de3160db1220f1a5bac0&profile_id=175&oauth2_token_id=57447761",
      "image": "https://images.pexels.com/videos/857251/free-video-857251.jpg?auto=compress&cs=tinysrgb&fit=crop&h=630&w=1200"
    },
    {
      "videoCreator": {
        "logo": "https://bl-i.thgim.com/public/incoming/dd0f4h/article66001550.ece/alternates/FREE_1200/Saregama.png",
        "creatorName": "Saregama",
        "subscribers": "34.6 M",
        "uploadDate": "1 month ago",
        "videoDetails": "Lorem ipsum dolor sit amet, consectetur adipiscing elit. Quisque consectetur eget augue non hendrerit. Donec aliquet massa non enim tristique, eu volutpat tellus tristique. Vestibulum vel purus ut tellus mattis hendrerit vel quis ligula. Nullam vel ex nec eros scelerisque aliquet vitae et nibh. Lorem ipsum dolor sit amet, consectetur adipiscing elit. Phasellus sit amet velit orci. Proin a massa vel lacus tempor blandit vel id mauris. Phasellus a vulputate libero. Aliquam erat volutpat. Ut sed odio auctor, cursus tortor eu, condimentum odio. Quisque eget scelerisque purus."
      },
      "id": 856973,
      "width": 2560,
      "height": 1440,
      "duration": "00:14",
      "name": "Timelapse video sunset",
      "url": "https://player.vimeo.com/external/226685105.hd.mp4?s=b6a194faf216cac660ec198e72b4e939cd74dee3&profile_id=170&oauth2_token_id=57447761",
      "image": "https://images.pexels.com/videos/856973/free-video-856973.jpg?auto=compress&cs=tinysrgb&fit=crop&h=630&w=1200"
    },
    {
      "videoCreator": {
        "logo": "https://bl-i.thgim.com/public/incoming/dd0f4h/article66001550.ece/alternates/FREE_1200/Saregama.png",
        "creatorName": "Saregama",
        "subscribers": "34.6 M",
        "uploadDate": "1 month ago",
        "videoDetails": "Lorem ipsum dolor sit amet, consectetur adipiscing elit. Quisque consectetur eget augue non hendrerit. Donec aliquet massa non enim tristique, eu volutpat tellus tristique. Vestibulum vel purus ut tellus mattis hendrerit vel quis ligula. Nullam vel ex nec eros scelerisque aliquet vitae et nibh. Lorem ipsum dolor sit amet, consectetur adipiscing elit. Phasellus sit amet velit orci. Proin a massa vel lacus tempor blandit vel id mauris. Phasellus a vulputate libero. Aliquam erat volutpat. Ut sed odio auctor, cursus tortor eu, condimentum odio. Quisque eget scelerisque purus."
      },
      "id": 3163534,
      "width": 2560,
      "height": 1440,
      "duration": "00:30",
      "name": "Changes in form and appearance of a submerged material",
      "url": "https://player.vimeo.com/external/370467553.hd.mp4?s=ce49c8c6d8e28a89298ffb4c53a2e842bdb11546&profile_id=170&oauth2_token_id=57447761",
      "image": "https://images.pexels.com/videos/3163534/free-video-3163534.jpg?auto=compress&cs=tinysrgb&fit=crop&h=630&w=1200"
    },
    {
      "videoCreator": {
        "logo": "https://bl-i.thgim.com/public/incoming/dd0f4h/article66001550.ece/alternates/FREE_1200/Saregama.png",
        "creatorName": "Saregama",
        "subscribers": "34.6 M",
        "uploadDate": "1 month ago",
        "videoDetails": "Lorem ipsum dolor sit amet, consectetur adipiscing elit. Quisque consectetur eget augue non hendrerit. Donec aliquet massa non enim tristique, eu volutpat tellus tristique. Vestibulum vel purus ut tellus mattis hendrerit vel quis ligula. Nullam vel ex nec eros scelerisque aliquet vitae et nibh. Lorem ipsum dolor sit amet, consectetur adipiscing elit. Phasellus sit amet velit orci. Proin a massa vel lacus tempor blandit vel id mauris. Phasellus a vulputate libero. Aliquam erat volutpat. Ut sed odio auctor, cursus tortor eu, condimentum odio. Quisque eget scelerisque purus."
      },
      "id": 857195,
      "width": 1280,
      "height": 720,
      "duration": "00:07",
      "name": "Timelapse video of night sky",
      "url": "https://player.vimeo.com/external/189545487.hd.mp4?s=131fa753bd9d7d6085af29f3603f4b65cbb3ab31&profile_id=174&oauth2_token_id=57447761",
      "image": "https://images.pexels.com/videos/857195/free-video-857195.jpg?auto=compress&cs=tinysrgb&fit=crop&h=630&w=1200"
    }
  ],
  "total_results": 383767,
  "next_page": "https://api.pexels.com/v1/videos/popular/?page=2&per_page=15",
  "url": "https://api-server.pexels.com/videos/"
}
